Crosswalking ORION resources to measure open access to biomedical research literature – ORION-DBs
…
The query result is stored in an R object called funding_oa for further local analysis.

funding_oa

# A tibble: 108 × 6
   publication_year funders            articles n_oa_articles oa_type enabled_ta
              <int> <chr>                 <int>         <int> <chr>   <lgl>     
 1             2024 NIH                   89834         34745 other_… FALSE     
 2             2024 NIH                   89834          5062 <NA>    FALSE     
 3             2024 NIH                   89834          2500 diamon… FALSE     
 4             2024 NIH                   89834         30187 gold_i… FALSE     
 5             2024 NIH                   89834          1218 gold_i… TRUE      
 6             2024 NIH                   89834          3241 hybrid… TRUE      
 7             2024 NIH                   89834         12750 hybrid… FALSE     
 8             2024 NIH                   89834           131 other_… TRUE      
 9             2024 European Commissi…    26958          3102 other_… FALSE     
10             2024 European Commissi…    26958          1348 <NA>    FALSE     
# ℹ 98 more rows
…
oa_by_year_and_type

# A tibble: 56 × 6
   publication_year funders             articles oa_cat             n_oa oa_prop
              <int> <chr>                  <int> <fct>             <int>   <dbl>
 1             2024 NIH                    89834 Other             34876  0.388 
 2             2024 NIH                    89834 Diamond OA         2500  0.0278
 3             2024 NIH                    89834 APC               42937  0.478 
 4             2024 NIH                    89834 Transformative A…  4459  0.0496
 5             2024 European Commission    26958 Other              3199  0.119 
 6             2024 European Commission    26958 Diamond OA          740  0.0275
 7             2024 European Commission    26958 Transformative A…  8548  0.317 
 8             2024 European Commission    26958 APC               13123  0.487 
 9             2023 NIH                    97415 Other             43969  0.451 
10             2023 NIH                    97415 Diamond OA         1948  0.0200
# ℹ 46 more rows
…
